module chirpy

go 1.20

require github.com/go-chi/chi/v5 v5.0.10

require (
	github.com/golang-jwt/jwt/v5 v5.0.0 // indirect
	github.com/joho/godotenv v1.5.1 // indirect
	golang.org/x/crypto v0.13.0 // indirect
)
